<?xml version="1.0" encoding="UTF-8"?>
<svg width="24px" height="20px" viewBox="0 0 24 20" version="1.1" xmlns="http://www.w3.org/2000/svg" xmlns:xlink="http://www.w3.org/1999/xlink">
    <!-- Generator: sketchtool 49 (51002) - http://www.bohemiancoding.com/sketch -->
    <title>90F39AA8-1759-4515-94DA-5C1D67C337BF</title>
    <desc>Created with sketchtool.</desc>
    <defs>
        <path d="M11.3399124,3.05614013 C9.37062625,6.20699799 6.416697,10.9332848 2.47812467,17.2350005 C2.42845854,17.3144663 2.40212382,17.4062901 2.40212382,17.5 C2.40212382,17.7761424 2.62598145,18 2.90212382,18 L21.0978762,18 C21.191586,18 21.2834098,17.9736653 21.3628756,17.9239992 C21.5970439,17.777644 21.6682305,17.4691688 21.5218753,17.2350005 C17.5787916,10.9260665 14.6214787,6.19436597 12.6499368,3.03989895 C11.9332453,1.89319242 12.1108223,1.82268433 11.3399124,3.05614013 Z M13.466858,0.57338035 C14.9624536,2.96633336 18.2127916,8.16687413 23.2178719,16.1750026 C23.9496478,17.345844 23.5937149,18.8882199 22.4228735,19.6199958 C22.0255445,19.8683264 21.5664255,20 21.0978762,20 L2.90212382,20 C1.52141195,20 0.402123821,18.8807119 0.402123821,17.5 C0.402123821,17.0314507 0.533797433,16.5723317 0.782128061,16.1750026 C5.79633405,8.15227307 9.05141329,2.94414628 10.5473658,0.550622288 C10.5687561,0.516397803 13.1464861,0.0607852786 13.466858,0.57338035 Z M12,6 C12.5522847,6 13,6.44771525 13,7 L13,11 C13,11.5522847 12.5522847,12 12,12 C11.4477153,12 11,11.5522847 11,11 L11,7 C11,6.44771525 11.4477153,6 12,6 Z M11,14 L13,14 L13,16 L11,16 L11,14 Z" id="path-1"></path>
    </defs>
    <g id="Style-Guide" stroke="none" stroke-width="1" fill="none" fill-rule="evenodd">
        <g id="Assets" transform="translate(-997.000000, -368.000000)">
            <g id="Alert" transform="translate(997.000000, 368.000000)">
                <mask id="mask-2" fill="white">
                    <use xlink:href="#path-1"></use>
                </mask>
                <use fill="#0B2E63" fill-rule="nonzero" xlink:href="#path-1"></use>
            </g>
        </g>
    </g>
</svg>