<?xml version="1.0" encoding="UTF-8"?>
<svg width="26px" height="16px" viewBox="0 0 26 16" version="1.1" xmlns="http://www.w3.org/2000/svg" xmlns:xlink="http://www.w3.org/1999/xlink">
    <!-- Generator: sketchtool 49.1 (51147) - http://www.bohemiancoding.com/sketch -->
    <title>C542C575-E3A0-4B01-B48A-22AA0B191D2C</title>
    <desc>Created with sketchtool.</desc>
    <defs></defs>
    <g id="Log-In" stroke="none" stroke-width="1" fill="none" fill-rule="evenodd">
        <g id="Log-In-3" transform="translate(-560.000000, -515.000000)" fill="#F5511E">
            <path d="M582.375562,521.574257 L582.375562,518.80198 L580.398922,518.80198 L580.398922,521.574257 L577.552561,521.574257 L577.552561,523.554455 L580.398922,523.554455 L580.398922,526.405941 L582.375562,526.405941 L582.375562,523.554455 L585.142857,523.554455 L585.142857,521.574257 L582.375562,521.574257 L582.375562,521.574257 Z M567.985624,521.415842 L567.985624,524.584158 C567.985624,524.584158 571.053686,524.58004 572.302922,524.58004 C571.626437,526.63398 570.574548,527.752475 567.985624,527.752475 C565.365628,527.752475 563.320755,525.624713 563.320755,523 C563.320755,520.375287 565.365628,518.247525 567.985624,518.247525 C569.370854,518.247525 570.265481,518.735287 571.086102,519.415129 C571.742979,518.757069 571.688108,518.663287 573.359317,517.082218 C571.940643,515.788594 570.055087,515 567.985624,515 C563.575267,515 560,518.581703 560,523 C560,527.418218 563.575267,531 567.985624,531 C574.577876,531 576.189154,525.249505 575.654987,521.415842 L567.985624,521.415842 L567.985624,521.415842 Z" id="GooglePlus"></path>
        </g>
    </g>
</svg>