<?xml version="1.0" encoding="UTF-8"?>
<svg width="15px" height="15px" viewBox="0 0 15 15" version="1.1" xmlns="http://www.w3.org/2000/svg" xmlns:xlink="http://www.w3.org/1999/xlink">
    <defs>
        <path d="M1.27152033,9.16582915 C0.995082957,9.34547739 0.925973612,9.67211055 1.08146964,9.94974874 L2.08355513,11.5502513 C2.25632849,11.8278894 2.60187521,11.9258794 2.89558993,11.7952261 L3.84584341,11.3869347 L3.88039809,11.419598 C4.43327284,11.8932161 5.07253428,12.2361809 5.78090506,12.4648241 L5.83273707,12.4811558 L5.91912375,13.4610553 C5.93640108,13.7713568 6.21283846,14 6.54110785,14 L8.49344683,14 C8.82171621,14 9.08087625,13.7713568 9.11543093,13.4610553 L9.20181761,12.4811558 L9.25364961,12.4648241 C9.96202039,12.2361809 10.6185592,11.8932161 11.1714339,11.419598 L12.1216874,11.7952261 C12.4154021,11.9258794 12.7782262,11.8115578 12.9337222,11.5502513 L13.9185304,9.94974874 C14.0740264,9.68844221 14.004917,9.34547739 13.7284797,9.16582915 L12.8818902,8.59422111 L12.8991675,8.54522613 C12.9682769,8.20226131 13.0028315,7.85929648 13.0028315,7.5 C13.0028315,7.14070352 12.9682769,6.79773869 12.8991675,6.45477387 L12.8818902,6.40577889 L13.7284797,5.83417085 C14.004917,5.65452261 14.0740264,5.31155779 13.9185304,5.05025126 L12.9337222,3.44974874 C12.7609488,3.17211055 12.4154021,3.0741206 12.1216874,3.20477387 L11.1887113,3.61306533 L11.1541566,3.58040201 C10.5840045,3.10678392 9.94474306,2.7638191 9.23637228,2.53517588 L9.18454027,2.51884422 L9.09815359,1.53894472 C9.08087625,1.22864322 8.80443888,1 8.47616949,1 L6.52383051,1 C6.19556112,1 5.93640108,1.22864322 5.90184641,1.53894472 L5.81545973,2.51884422 L5.76362772,2.53517588 C5.07253428,2.7638191 4.41599551,3.10678392 3.86312075,3.58040201 L3.82856608,3.61306533 L2.87831259,3.20477387 C2.58459788,3.0741206 2.22177382,3.18844221 2.0662778,3.44974874 L1.08146964,5.05025126 C0.925973612,5.31155779 0.995082957,5.65452261 1.27152033,5.83417085 L2.1181098,6.40577889 L2.10083247,6.45477387 C2.03172312,6.79773869 1.99716845,7.15703518 1.99716845,7.5 C1.99716845,7.84296482 2.03172312,8.20226131 2.10083247,8.54522613 L2.1181098,8.59422111 L1.27152033,9.16582915 Z M1.02818436,8.12352826 C1.00759775,7.91535487 0.997168451,7.7061406 0.997168451,7.5 C0.997168451,7.29382256 1.00760148,7.08457035 1.0281954,6.87636011 L0.726608865,6.67266444 C0.00466085625,6.20349239 -0.210841366,5.2664417 0.229783659,4.52619878 L1.20692193,2.93837071 C1.62516826,2.23551995 2.53458803,1.95740031 3.27308121,2.2859933 L3.67892454,2.46037031 C4.04582242,2.20454533 4.44604626,1.98543684 4.87485755,1.80297162 L4.90798968,1.42827045 C4.99975045,0.604257277 5.69340095,0 6.52383051,0 L8.47616949,0 C9.31869207,0 10.0487445,0.623737805 10.0942901,1.45112661 L10.1250014,1.79948965 C10.5440842,1.97682963 10.9422528,2.19506844 11.326405,2.46125423 L11.7152544,2.29109328 C12.464179,1.95794879 13.3457307,2.21913234 13.7854082,2.92569627 L14.7778862,4.53887322 C15.2108414,5.2664417 14.9953391,6.20349239 14.2880602,6.66294682 L13.9723829,6.87608876 C13.9927291,7.08175383 14.0028315,7.28909828 14.0028315,7.5 C14.0028315,7.71093991 13.9927254,7.91832127 13.9723718,8.12402298 L14.2733911,8.32733556 C14.9953391,8.79650761 15.2108414,9.7335583 14.7702163,10.4738012 L13.7930781,12.0616293 C13.3748317,12.7644801 12.465412,13.0425997 11.7207743,12.7113422 L11.3450123,12.5469003 C10.975702,12.8029995 10.5732978,13.0211765 10.1420137,13.2016215 L10.1092877,13.5717295 C10.0175269,14.3957427 9.32387639,15 8.49344683,15 L6.54110785,15 C5.69858527,15 4.96853284,14.3762622 4.92298722,13.5488734 L4.89227396,13.2004874 C4.4709965,13.0221277 4.07391741,12.8033692 3.69768267,12.5389424 L3.30202293,12.7089067 C2.55309838,13.0420512 1.67154661,12.7808677 1.23597871,12.0809246 L0.208988592,10.4383967 C-0.202028998,9.70452469 0.00617157158,8.8019442 0.717649352,8.33319814 L1.02818436,8.12352826 Z M7.5,9.28571429 C8.48622277,9.28571429 9.28571429,8.48622277 9.28571429,7.5 C9.28571429,6.51377723 8.48622277,5.71428571 7.5,5.71428571 C6.51377723,5.71428571 5.71428571,6.51377723 5.71428571,7.5 C5.71428571,8.48622277 6.51377723,9.28571429 7.5,9.28571429 Z M7.5,10.2857143 C5.96149248,10.2857143 4.71428571,9.03850752 4.71428571,7.5 C4.71428571,5.96149248 5.96149248,4.71428571 7.5,4.71428571 C9.03850752,4.71428571 10.2857143,5.96149248 10.2857143,7.5 C10.2857143,9.03850752 9.03850752,10.2857143 7.5,10.2857143 Z" id="settings-small-icon"></path>
    </defs>
    <g id="Style-Guide" stroke="none" stroke-width="1" fill="none" fill-rule="evenodd">
        <g id="Assets" transform="translate(-305.000000, -481.000000)">
            <g id="Settings-Small" transform="translate(305.000000, 481.000000)">
                <mask id="mask-2" fill="white">
                    <use xlink:href="#settings-small-icon"></use>
                </mask>
                <use id="Mask" fill="#98A7BE" fill-rule="nonzero" xlink:href="#settings-small-icon"></use>
            </g>
        </g>
    </g>
</svg>